i=0 i1=0 (i/255)*i1=0.000000 weightedSum=0.000000
i=1 i1=0 (i/255)*i1=0.000000 weightedSum=0.000000
i=2 i1=0 (i/255)*i1=0.000000 weightedSum=0.000000
i=3 i1=0 (i/255)*i1=0.000000 weightedSum=0.000000
i=4 i1=0 (i/255)*i1=0.000000 weightedSum=0.000000
i=5 i1=0 (i/255)*i1=0.000000 weightedSum=0.000000
i=6 i1=0 (i/255)*i1=0.000000 weightedSum=0.000000
i=7 i1=0 (i/255)*i1=0.000000 weightedSum=0.000000
i=8 i1=0 (i/255)*i1=0.000000 weightedSum=0.000000
i=9 i1=0 (i/255)*i1=0.000000 weightedSum=0.000000
i=10 i1=0 (i/255)*i1=0.000000 weightedSum=0.000000
i=11 i1=0 (i/255)*i1=0.000000 weightedSum=0.000000
i=12 i1=0 (i/255)*i1=0.000000 weightedSum=0.000000
i=13 i1=0 (i/255)*i1=0.000000 weightedSum=0.000000
i=14 i1=0 (i/255)*i1=0.000000 weightedSum=0.000000
i=15 i1=0 (i/255)*i1=0.000000 weightedSum=0.000000
i=16 i1=0 (i/255)*i1=0.000000 weightedSum=0.000000
i=17 i1=0 (i/255)*i1=0.000000 weightedSum=0.000000
i=18 i1=0 (i/255)*i1=0.000000 weightedSum=0.000000
i=19 i1=0 (i/255)*i1=0.000000 weightedSum=0.000000
i=20 i1=0 (i/255)*i1=0.000000 weightedSum=0.000000
i=21 i1=0 (i/255)*i1=0.000000 weightedSum=0.000000
i=22 i1=0 (i/255)*i1=0.000000 weightedSum=0.000000
i=23 i1=0 (i/255)*i1=0.000000 weightedSum=0.000000
i=24 i1=0 (i/255)*i1=0.000000 weightedSum=0.000000
i=25 i1=0 (i/255)*i1=0.000000 weightedSum=0.000000
i=26 i1=0 (i/255)*i1=0.000000 weightedSum=0.000000
i=27 i1=0 (i/255)*i1=0.000000 weightedSum=0.000000
i=28 i1=0 (i/255)*i1=0.000000 weightedSum=0.000000
i=29 i1=0 (i/255)*i1=0.000000 weightedSum=0.000000
i=30 i1=0 (i/255)*i1=0.000000 weightedSum=0.000000
i=31 i1=0 (i/255)*i1=0.000000 weightedSum=0.000000
i=32 i1=0 (i/255)*i1=0.000000 weightedSum=0.000000
i=33 i1=0 (i/255)*i1=0.000000 weightedSum=0.000000
i=34 i1=0 (i/255)*i1=0.000000 weightedSum=0.000000
i=35 i1=0 (i/255)*i1=0.000000 weightedSum=0.000000
i=36 i1=0 (i/255)*i1=0.000000 weightedSum=0.000000
i=37 i1=0 (i/255)*i1=0.000000 weightedSum=0.000000
i=38 i1=0 (i/255)*i1=0.000000 weightedSum=0.000000
i=39 i1=0 (i/255)*i1=0.000000 weightedSum=0.000000
i=40 i1=0 (i/255)*i1=0.000000 weightedSum=0.000000
i=41 i1=0 (i/255)*i1=0.000000 weightedSum=0.000000
i=42 i1=0 (i/255)*i1=0.000000 weightedSum=0.000000
i=43 i1=0 (i/255)*i1=0.000000 weightedSum=0.000000
i=44 i1=0 (i/255)*i1=0.000000 weightedSum=0.000000
i=45 i1=0 (i/255)*i1=0.000000 weightedSum=0.000000
i=46 i1=0 (i/255)*i1=0.000000 weightedSum=0.000000
i=47 i1=0 (i/255)*i1=0.000000 weightedSum=0.000000
i=48 i1=0 (i/255)*i1=0.000000 weightedSum=0.000000
i=49 i1=0 (i/255)*i1=0.000000 weightedSum=0.000000
i=50 i1=0 (i/255)*i1=0.000000 weightedSum=0.000000
i=51 i1=0 (i/255)*i1=0.000000 weightedSum=0.000000
i=52 i1=0 (i/255)*i1=0.000000 weightedSum=0.000000
i=53 i1=0 (i/255)*i1=0.000000 weightedSum=0.000000
i=54 i1=0 (i/255)*i1=0.000000 weightedSum=0.000000
i=55 i1=0 (i/255)*i1=0.000000 weightedSum=0.000000
i=56 i1=0 (i/255)*i1=0.000000 weightedSum=0.000000
i=57 i1=0 (i/255)*i1=0.000000 weightedSum=0.000000
i=58 i1=1 (i/255)*i1=0.227451 weightedSum=0.227451
i=59 i1=0 (i/255)*i1=0.000000 weightedSum=0.227451
i=60 i1=0 (i/255)*i1=0.000000 weightedSum=0.227451
i=61 i1=1 (i/255)*i1=0.239216 weightedSum=0.466667
i=62 i1=4 (i/255)*i1=0.972549 weightedSum=1.439216
i=63 i1=2 (i/255)*i1=0.494118 weightedSum=1.933333
i=64 i1=6 (i/255)*i1=1.505882 weightedSum=3.439216
i=65 i1=8 (i/255)*i1=2.039216 weightedSum=5.478431
i=66 i1=6 (i/255)*i1=1.552941 weightedSum=7.031373
i=67 i1=6 (i/255)*i1=1.576471 weightedSum=8.607843
i=68 i1=13 (i/255)*i1=3.466667 weightedSum=12.074510
i=69 i1=21 (i/255)*i1=5.682353 weightedSum=17.756863
i=70 i1=34 (i/255)*i1=9.333333 weightedSum=27.090196
i=71 i1=34 (i/255)*i1=9.466667 weightedSum=36.556863
i=72 i1=41 (i/255)*i1=11.576471 weightedSum=48.133333
i=73 i1=43 (i/255)*i1=12.309804 weightedSum=60.443137
i=74 i1=73 (i/255)*i1=21.184314 weightedSum=81.627451
i=75 i1=101 (i/255)*i1=29.705882 weightedSum=111.333333
i=76 i1=99 (i/255)*i1=29.505882 weightedSum=140.839216
i=77 i1=127 (i/255)*i1=38.349020 weightedSum=179.188235
i=78 i1=134 (i/255)*i1=40.988235 weightedSum=220.176471
i=79 i1=138 (i/255)*i1=42.752941 weightedSum=262.929412
i=80 i1=126 (i/255)*i1=39.529412 weightedSum=302.458824
i=81 i1=132 (i/255)*i1=41.929412 weightedSum=344.388235
i=82 i1=127 (i/255)*i1=40.839216 weightedSum=385.227451
i=83 i1=130 (i/255)*i1=42.313725 weightedSum=427.541176
i=84 i1=127 (i/255)*i1=41.835294 weightedSum=469.376471
i=85 i1=104 (i/255)*i1=34.666667 weightedSum=504.043137
i=86 i1=89 (i/255)*i1=30.015686 weightedSum=534.058824
i=87 i1=87 (i/255)*i1=29.682353 weightedSum=563.741176
i=88 i1=69 (i/255)*i1=23.811765 weightedSum=587.552941
i=89 i1=64 (i/255)*i1=22.337255 weightedSum=609.890196
i=90 i1=78 (i/255)*i1=27.529412 weightedSum=637.419608
i=91 i1=55 (i/255)*i1=19.627451 weightedSum=657.047059
i=92 i1=64 (i/255)*i1=23.090196 weightedSum=680.137255
i=93 i1=68 (i/255)*i1=24.800000 weightedSum=704.937255
i=94 i1=59 (i/255)*i1=21.749020 weightedSum=726.686275
i=95 i1=62 (i/255)*i1=23.098039 weightedSum=749.784314
i=96 i1=54 (i/255)*i1=20.329412 weightedSum=770.113725
i=97 i1=57 (i/255)*i1=21.682353 weightedSum=791.796078
i=98 i1=53 (i/255)*i1=20.368627 weightedSum=812.164706
i=99 i1=56 (i/255)*i1=21.741176 weightedSum=833.905882
i=100 i1=63 (i/255)*i1=24.705882 weightedSum=858.611765
i=101 i1=63 (i/255)*i1=24.952941 weightedSum=883.564706
i=102 i1=55 (i/255)*i1=22.000000 weightedSum=905.564706
i=103 i1=51 (i/255)*i1=20.600000 weightedSum=926.164706
i=104 i1=54 (i/255)*i1=22.023529 weightedSum=948.188235
i=105 i1=53 (i/255)*i1=21.823529 weightedSum=970.011765
i=106 i1=60 (i/255)*i1=24.941176 weightedSum=994.952941
i=107 i1=52 (i/255)*i1=21.819608 weightedSum=1016.772549
i=108 i1=56 (i/255)*i1=23.717647 weightedSum=1040.490196
i=109 i1=62 (i/255)*i1=26.501961 weightedSum=1066.992157
i=110 i1=63 (i/255)*i1=27.176471 weightedSum=1094.168627
i=111 i1=44 (i/255)*i1=19.152941 weightedSum=1113.321569
i=112 i1=56 (i/255)*i1=24.596078 weightedSum=1137.917647
i=113 i1=45 (i/255)*i1=19.941176 weightedSum=1157.858824
i=114 i1=48 (i/255)*i1=21.458824 weightedSum=1179.317647
i=115 i1=54 (i/255)*i1=24.352941 weightedSum=1203.670588
i=116 i1=60 (i/255)*i1=27.294118 weightedSum=1230.964706
i=117 i1=62 (i/255)*i1=28.447059 weightedSum=1259.411765
i=118 i1=49 (i/255)*i1=22.674510 weightedSum=1282.086275
i=119 i1=67 (i/255)*i1=31.266667 weightedSum=1313.352941
i=120 i1=61 (i/255)*i1=28.705882 weightedSum=1342.058824
i=121 i1=70 (i/255)*i1=33.215686 weightedSum=1375.274510
i=122 i1=58 (i/255)*i1=27.749020 weightedSum=1403.023529
i=123 i1=52 (i/255)*i1=25.082353 weightedSum=1428.105882
i=124 i1=62 (i/255)*i1=30.149020 weightedSum=1458.254902
i=125 i1=71 (i/255)*i1=34.803922 weightedSum=1493.058824
i=126 i1=72 (i/255)*i1=35.576471 weightedSum=1528.635294
i=127 i1=66 (i/255)*i1=32.870588 weightedSum=1561.505882
i=128 i1=85 (i/255)*i1=42.666667 weightedSum=1604.172549
i=129 i1=91 (i/255)*i1=46.035294 weightedSum=1650.207843
i=130 i1=97 (i/255)*i1=49.450980 weightedSum=1699.658824
i=131 i1=107 (i/255)*i1=54.968627 weightedSum=1754.627451
i=132 i1=95 (i/255)*i1=49.176471 weightedSum=1803.803922
i=133 i1=83 (i/255)*i1=43.290196 weightedSum=1847.094118
i=134 i1=70 (i/255)*i1=36.784314 weightedSum=1883.878431
i=135 i1=76 (i/255)*i1=40.235294 weightedSum=1924.113725
i=136 i1=64 (i/255)*i1=34.133333 weightedSum=1958.247059
i=137 i1=75 (i/255)*i1=40.294118 weightedSum=1998.541176
i=138 i1=83 (i/255)*i1=44.917647 weightedSum=2043.458824
i=139 i1=88 (i/255)*i1=47.968627 weightedSum=2091.427451
i=140 i1=93 (i/255)*i1=51.058824 weightedSum=2142.486275
i=141 i1=95 (i/255)*i1=52.529412 weightedSum=2195.015686
i=142 i1=106 (i/255)*i1=59.027451 weightedSum=2254.043137
i=143 i1=69 (i/255)*i1=38.694118 weightedSum=2292.737255
i=144 i1=100 (i/255)*i1=56.470588 weightedSum=2349.207843
i=145 i1=115 (i/255)*i1=65.392157 weightedSum=2414.600000
i=146 i1=115 (i/255)*i1=65.843137 weightedSum=2480.443137
i=147 i1=119 (i/255)*i1=68.600000 weightedSum=2549.043137
i=148 i1=148 (i/255)*i1=85.898039 weightedSum=2634.941176
i=149 i1=136 (i/255)*i1=79.466667 weightedSum=2714.407843
i=150 i1=171 (i/255)*i1=100.588235 weightedSum=2814.996078
i=151 i1=207 (i/255)*i1=122.576471 weightedSum=2937.572549
i=152 i1=261 (i/255)*i1=155.576471 weightedSum=3093.149020
i=153 i1=399 (i/255)*i1=239.400000 weightedSum=3332.549020
i=154 i1=606 (i/255)*i1=365.976471 weightedSum=3698.525490
i=155 i1=1053 (i/255)*i1=640.058824 weightedSum=4338.584314
i=156 i1=1423 (i/255)*i1=870.541176 weightedSum=5209.125490
i=157 i1=1745 (i/255)*i1=1074.372549 weightedSum=6283.498039
i=158 i1=1715 (i/255)*i1=1062.627451 weightedSum=7346.125490
i=159 i1=1270 (i/255)*i1=791.882353 weightedSum=8138.007843
i=160 i1=704 (i/255)*i1=441.725490 weightedSum=8579.733333
i=161 i1=310 (i/255)*i1=195.725490 weightedSum=8775.458824
i=162 i1=127 (i/255)*i1=80.682353 weightedSum=8856.141176
i=163 i1=54 (i/255)*i1=34.517647 weightedSum=8890.658824
i=164 i1=21 (i/255)*i1=13.505882 weightedSum=8904.164706
i=165 i1=11 (i/255)*i1=7.117647 weightedSum=8911.282353
i=166 i1=6 (i/255)*i1=3.905882 weightedSum=8915.188235
i=167 i1=2 (i/255)*i1=1.309804 weightedSum=8916.498039
i=168 i1=6 (i/255)*i1=3.952941 weightedSum=8920.450980
i=169 i1=0 (i/255)*i1=0.000000 weightedSum=8920.450980
i=170 i1=0 (i/255)*i1=0.000000 weightedSum=8920.450980
i=171 i1=0 (i/255)*i1=0.000000 weightedSum=8920.450980
i=172 i1=0 (i/255)*i1=0.000000 weightedSum=8920.450980
i=173 i1=0 (i/255)*i1=0.000000 weightedSum=8920.450980
i=174 i1=1 (i/255)*i1=0.682353 weightedSum=8921.133333
i=175 i1=0 (i/255)*i1=0.000000 weightedSum=8921.133333
i=176 i1=0 (i/255)*i1=0.000000 weightedSum=8921.133333
i=177 i1=0 (i/255)*i1=0.000000 weightedSum=8921.133333
i=178 i1=0 (i/255)*i1=0.000000 weightedSum=8921.133333
i=179 i1=0 (i/255)*i1=0.000000 weightedSum=8921.133333
i=180 i1=0 (i/255)*i1=0.000000 weightedSum=8921.133333
i=181 i1=0 (i/255)*i1=0.000000 weightedSum=8921.133333
i=182 i1=0 (i/255)*i1=0.000000 weightedSum=8921.133333
i=183 i1=0 (i/255)*i1=0.000000 weightedSum=8921.133333
i=184 i1=0 (i/255)*i1=0.000000 weightedSum=8921.133333
i=185 i1=0 (i/255)*i1=0.000000 weightedSum=8921.133333
i=186 i1=0 (i/255)*i1=0.000000 weightedSum=8921.133333
i=187 i1=0 (i/255)*i1=0.000000 weightedSum=8921.133333
i=188 i1=0 (i/255)*i1=0.000000 weightedSum=8921.133333
i=189 i1=0 (i/255)*i1=0.000000 weightedSum=8921.133333
i=190 i1=0 (i/255)*i1=0.000000 weightedSum=8921.133333
i=191 i1=0 (i/255)*i1=0.000000 weightedSum=8921.133333
i=192 i1=0 (i/255)*i1=0.000000 weightedSum=8921.133333
i=193 i1=0 (i/255)*i1=0.000000 weightedSum=8921.133333
i=194 i1=0 (i/255)*i1=0.000000 weightedSum=8921.133333
i=195 i1=0 (i/255)*i1=0.000000 weightedSum=8921.133333
i=196 i1=0 (i/255)*i1=0.000000 weightedSum=8921.133333
i=197 i1=0 (i/255)*i1=0.000000 weightedSum=8921.133333
i=198 i1=0 (i/255)*i1=0.000000 weightedSum=8921.133333
i=199 i1=0 (i/255)*i1=0.000000 weightedSum=8921.133333
i=200 i1=0 (i/255)*i1=0.000000 weightedSum=8921.133333
i=201 i1=0 (i/255)*i1=0.000000 weightedSum=8921.133333
i=202 i1=0 (i/255)*i1=0.000000 weightedSum=8921.133333
i=203 i1=0 (i/255)*i1=0.000000 weightedSum=8921.133333
i=204 i1=0 (i/255)*i1=0.000000 weightedSum=8921.133333
i=205 i1=0 (i/255)*i1=0.000000 weightedSum=8921.133333
i=206 i1=0 (i/255)*i1=0.000000 weightedSum=8921.133333
i=207 i1=0 (i/255)*i1=0.000000 weightedSum=8921.133333
i=208 i1=0 (i/255)*i1=0.000000 weightedSum=8921.133333
i=209 i1=0 (i/255)*i1=0.000000 weightedSum=8921.133333
i=210 i1=0 (i/255)*i1=0.000000 weightedSum=8921.133333
i=211 i1=0 (i/255)*i1=0.000000 weightedSum=8921.133333
i=212 i1=0 (i/255)*i1=0.000000 weightedSum=8921.133333
i=213 i1=0 (i/255)*i1=0.000000 weightedSum=8921.133333
i=214 i1=0 (i/255)*i1=0.000000 weightedSum=8921.133333
i=215 i1=0 (i/255)*i1=0.000000 weightedSum=8921.133333
i=216 i1=0 (i/255)*i1=0.000000 weightedSum=8921.133333
i=217 i1=0 (i/255)*i1=0.000000 weightedSum=8921.133333
i=218 i1=0 (i/255)*i1=0.000000 weightedSum=8921.133333
i=219 i1=0 (i/255)*i1=0.000000 weightedSum=8921.133333
i=220 i1=0 (i/255)*i1=0.000000 weightedSum=8921.133333
i=221 i1=0 (i/255)*i1=0.000000 weightedSum=8921.133333
i=222 i1=0 (i/255)*i1=0.000000 weightedSum=8921.133333
i=223 i1=0 (i/255)*i1=0.000000 weightedSum=8921.133333
i=224 i1=0 (i/255)*i1=0.000000 weightedSum=8921.133333
i=225 i1=0 (i/255)*i1=0.000000 weightedSum=8921.133333
i=226 i1=0 (i/255)*i1=0.000000 weightedSum=8921.133333
i=227 i1=0 (i/255)*i1=0.000000 weightedSum=8921.133333
i=228 i1=0 (i/255)*i1=0.000000 weightedSum=8921.133333
i=229 i1=0 (i/255)*i1=0.000000 weightedSum=8921.133333
i=230 i1=0 (i/255)*i1=0.000000 weightedSum=8921.133333
i=231 i1=0 (i/255)*i1=0.000000 weightedSum=8921.133333
i=232 i1=0 (i/255)*i1=0.000000 weightedSum=8921.133333
i=233 i1=0 (i/255)*i1=0.000000 weightedSum=8921.133333
i=234 i1=0 (i/255)*i1=0.000000 weightedSum=8921.133333
i=235 i1=0 (i/255)*i1=0.000000 weightedSum=8921.133333
i=236 i1=0 (i/255)*i1=0.000000 weightedSum=8921.133333
i=237 i1=0 (i/255)*i1=0.000000 weightedSum=8921.133333
i=238 i1=0 (i/255)*i1=0.000000 weightedSum=8921.133333
i=239 i1=0 (i/255)*i1=0.000000 weightedSum=8921.133333
i=240 i1=0 (i/255)*i1=0.000000 weightedSum=8921.133333
i=241 i1=0 (i/255)*i1=0.000000 weightedSum=8921.133333
i=242 i1=0 (i/255)*i1=0.000000 weightedSum=8921.133333
i=243 i1=0 (i/255)*i1=0.000000 weightedSum=8921.133333
i=244 i1=0 (i/255)*i1=0.000000 weightedSum=8921.133333
i=245 i1=0 (i/255)*i1=0.000000 weightedSum=8921.133333
i=246 i1=0 (i/255)*i1=0.000000 weightedSum=8921.133333
i=247 i1=0 (i/255)*i1=0.000000 weightedSum=8921.133333
i=248 i1=0 (i/255)*i1=0.000000 weightedSum=8921.133333
i=249 i1=0 (i/255)*i1=0.000000 weightedSum=8921.133333
i=250 i1=0 (i/255)*i1=0.000000 weightedSum=8921.133333
i=251 i1=0 (i/255)*i1=0.000000 weightedSum=8921.133333
i=252 i1=0 (i/255)*i1=0.000000 weightedSum=8921.133333
i=253 i1=0 (i/255)*i1=0.000000 weightedSum=8921.133333
i=254 i1=0 (i/255)*i1=0.000000 weightedSum=8921.133333
