:100000006F868685858482828383838384848483C8
:10001000838082838180818281807F7E7F818081D5
:10002000807D7873716D6A635C5B5E605F5A514D71
:1000300049464646464646484B4C4C4B494847463F
:100040004544434343454544414041424143474A77
:100050004C4F5153565A5A57575D646767686B70D7
:100060007576797C7C7B7A7B7C7C7D8085898885B4
:1000700084848483828282838485858585A09E9EF4
:10008000839F9E9D9E9D9C9D9D9D9D9E9FA09F9EAE
:100090009E9C9D9F9C9B9C9C9C9B9B9A9A9B9C9CA2
:1000A0009C999592918D8A8279787D7D7974706E14
:1000B0006B686768686766666666676665656566D5
:1000C0006666676564656665636264656566696AD8
:1000D0006B6C6D6F70747674747A82898A8A8A8E7A
:1000E00090909193949496989998989AA0A4A29E8F
:1000F0009E9E9D9D9C9C9C9D9E9E9E9E9EA09E9E27
:10010000839E9E9E9E9E9E9E9E9E9EA0A2A2A1A01B
:10011000A09FA0A19E9D9D9D9D9D9F9E9C9D9D9C01
:100120009D9B9A9A9A97958E85868A8884828284E6
:1001300083807D7D7E7E7C7B797978777675767815
:1001400078797A787677787877777A7B7C7D7E7D18
:100150007E7E7D7C7D80848586888D929594929329
:10016000939494959596999C9E9C9A9B9FA19E9BF7
:100170009C9D9D9D9D9D9D9D9E9E9E9E9E9F9E9DA8
:10018000829E9F9F9E9E9F9F9F9E9FA1A3A3A1A093
:10019000A1A0A0A19F9E9E9E9E9EA0A09E9E9C9A76
:1001A0009C9C9B9B9D9A99948E8F91908F8F9193FD
:1001B000938E8A8A8B8B8A898786868584848383BB
:1001C00083838383838485848485888A8C8C8B8BCA
:1001D0008C8B898686898D9091909296979695942E
:1001E0009698999896969A9E9F9E9C9B9D9E9B9969
:1001F0009A9D9D9D9D9D9D9D9D9D9D9D9E9F9D9E2E
:10020000829E9F9E9D9C9F9F9E9E9EA0A2A2A09F1D
:10021000A0A0A09F9E9F9F9F9E9D9F9F9F9E9A98FC
:100220009B9C9A9A9C9A9997949797969697989A46
:1002300099948F8E8E8F8E8E8E8D8D8E8F8F8D8CCE
:100240008B8B8A8C8D8E8E8D8C8D909293949292C6
:1002500094938F8B8A8C8F92929396999998979773
:10026000999C9D9C98979A9D9D9D9D9C9D9E9C9BD5
:100270009C9D9C9C9C9B9B9B9C9D9D9D9D9E9D9EB7
:10028000839E9E9E9D9C9E9E9E9D9E9FA09F9E9EA9
:100290009F9F9F9E9D9E9E9E9E9E9F9F9F9D999687
:1002A0009B9C9B9B9D9B9B9B9DA19E9A9897989A9C
:1002B0009A97949392919192949392949797949100
:1002C0009090919293949291909192929193919215
:1002D000969693908F9193959595999E9E9B9A99BA
:1002E0009A9B9D9C9B9B9D9E9C9B9C9C9D9E9E9D4A
:1002F0009D9D9B9B9B99989A9C9E9F9E9D9E9D9E3B
:10030000829E9D9D9D9C9D9D9D9E9F9F9E9D9E9F2F
:10031000A0A09F9D9C9E9D9D9D9D9E9F9F9D9B9807
:100320009B9C9A9A9C9B9B9CA0A5A09A979696971B
:1003300098989A9B9B9A9A9C9B9897999C9C9A9721
:10034000979796969594939293939392939693946A
:10035000999B9996959698999795989D9E9C9C9C0B
:100360009B9B9C9C9B9C9D9D9C9C9C9C9D9D9E9EC8
:100370009D9D9C9C9A9897999EA1A2A09E9D9D9EB2
:10038000839D9D9D9D9D9E9D9D9E9F9E9D9E9F9FAD
:10039000A0A0A09E9C9D9D9D9D9DA0A09F9F9E9D79
:1003A0009D9C9A9A9D9C9B9C9FA49F9A9897989796
:1003B00096989CA0A09FA0A1A09B999B9E9E9D9D6E
:1003C0009D9C9B999695959796959495989B9898B2
:1003D0009A9C9D9B9A99999A979596999B9B9B9D80
:1003E0009E9C9C9B9A9A9B9C9D9D9D9D9D9D9D9D49
:1003F0009D9D9D9D9B99999B9EA1A2A09F9E9D9D29
:1004000085A09F9E9E9E9F9E9D9E9E9C9C9FA09E23
:100410009D9E9F9E9C9D9D9D9D9DA1A2A09F9F9FF7
:100420009E9D9C9C9F9F9E9E9FA2A09C99989A99FE
:1004300096969B9F9D99989A9C9997979898999C26
:100440009B9A999897989A9B989596989B9C9A971F
:100450009697999A99979697979798999A9A9A9C16
:100460009E9B9C9B99999A9B9C9D9D9D9D9D9D9DCE
:100470009D9D9D9D9D9C9B9C9D9E9E9E9E9FA09CA8
:1004800087A2A19F9D9D9E9E9E9E9D9C9C9FA09DA0
:100490009B9B9D9D9B9C9B9C9D9D9F9F9F9E9E9E8D
:1004A0009F9E9D9D9E9C9B999BA0A09D999698998F
:1004B00096949798938E8C8E92928F8D8C8D8F9030
:1004C0008F8E9092939495969492949799989591F3
:1004D0008F8E9092939394959798999A9A9A999AC5
:1004E0009B999A9A99999A9B9B9D9D9D9D9C9C9C5A
:1004F0009C9C9C9C9D9C9B9B9C9B9B9C9D9FA09C37
:1005000087A1A09E9D9D9E9E9E9F9E9D9D9E9E9C22
:100510009B9B9D9D9C9B9A9B9C9D9D9E9E9C9B9C1A
:100520009E9F9E9C99979492949A9C9A948F8D8D5D
:100530008B8C8E8D87827F80848684808083858566
:100540008380818485848384858587898A8A898755
:10055000878685878A8D92949798999A9A9A98987F
:100560009A9A9A999897989A9A9C9D9C9C9B9B9BE7
:100570009B9B9B9C9C9C9C9C9C9B9B9C9D9C9F9CBC
:10058000849E9D9D9E9E9E9E9F9F9F9E9E9E9E9DA5
:100590009C9B9D9E9C9B99999B9C9C9C9C9B9A9BA5
:1005A0009D9E9D9993908C88888C8E8C89837D7A72
:1005B000797C807F7A757373767977737275797ABF
:1005C00078757575726D6B6D707374757677787BF1
:1005D0007D7C797B7E82878A8D8E8F919393929496
:1005E000999C9B9A979595989A9B9C9C9C9B9B9B6E
:1005F0009B9B9B9C9C9C9C9C9C9C9C9D9E9F9FA031
:10060000829B9B9C9E9F9E9EA0A09F9F9F9E9D9D28
:100610009C9B9B9C9C9A98989A9B9A9A9A9A9A9A35
:100620009A97948F8A87837D7979787878756F6CBB
:100630006A6D71716E6C6968696B68636163686E1D
:100640006D6A6867635D595B5F6264666767676A66
:100650006D6E6C6D6F7070747677797D818484882F
:100660008F959697979696999A9B9C9B9B9B9B9C04
:100670009C9B9B9B9B9B9C9C9C9C9C9D9E9F9CA0B5
:10068000829C9C9C9D9D9D9E9F9F9F9F9F9E9D9DAC
:100690009C9B9A9B9C9B9A99999A99989795928FD3
:1006A0008A86837F7C797774706E6A696A6B696801
:1006B000666564646464605C5A5B5A5854545B6257
:1006C000625C57585A5956545557595C5F5A54539F
:1006D000575B5D5F605E5D5F616163676D717173E4
:1006E0007981868C93989A9D9D9D9C9B9A9A9B9BC1
:1006F0009B9B9A9A9B9B9C9C9D9C9C9C9D9F9CA039
:10070000839D9E9D9C9C9D9E9F9F9F9F9F9F9E9D26
:100710009D9C9B9B9D9C9B9A99999896928C867E7A
:10072000787473716E6B696663625E5D6164646345
:100730005F5A565657585652505051524E4A4E557F
:10074000534B484D5456534D4847484D54524C49CD
:1007500048484B5156555152535355585D6060614E
:10076000676F77818D959A9D9F9E9C9B99999A9B87
:100770009B9B9A9B9B9B9C9D9D9D9C9C9C9D999EBD
:10078000839E9F9E9D9C9D9E9E9F9F9F9FA09F9DA1
:100790009E9E9C9C9D9C9C9A989693908A847C7427
:1007A0006E6B6B6A66615E5957565455595D5D5A5A
:1007B000544E4D4E4F4F4E4C4C4C4D4F4C46474B6C
:1007C0004A4444484F514C453F3E3E434B4F4E4AAE
:1007D00045414148504F4B4B4D4E4F52555756593E
:1007E00060676E77828B90949A9C9B9A9998999A5D
:1007F0009A9B9B9C9C9B9C9D9D9C9C9C9D9DA0A032
:10080000839D9E9F9F9F9F9E9E9F9F9E9FA0A09D1A
:100810009D9E9D9C9C9B9B9995918B87827C7671DC
:100820006D6A68655F5B5955535351515355565422
:100830004D4A4C4F4E4D4C4D4D4B4C4D4C47474CFB
:100840004D4B4A4C4E4E4944424444474C4F4F4E08
:100850004B4644474B4B494A4B4C4E5153535357CD
:100860005D62666C73797E828B939697979899995F
:100870009A9A9B9B9B9B9B9C9C9B9B9C9D9DA5A1B3
:10088000839D9E9FA0A0A09E9D9E9E9D9EA09F9D9D
:100890009D9E9D9C9C9A9B99948E86817B746F6C87
:1008A0006B67625C565555545354525152525150D5
:1008B0004D4B4F514F4D4C4D4D4A494B4B49484C78
:1008C0004F4F515151514D4A494B4A4A4D4E4F4F4E
:1008D0004E4A47484A4B4B4B4B4C4D4F4F4F4E4F58
:1008E0005253565A61696D717B8890949698999984
:1008F0009A9A9B9B9B9B9C9C9C9C9D9E9F9DA5A12B
:10090000839D9E9FA0A1A3A19E9E9E9D9E9F9E9D16
:100910009D9D9C9C9C9A9B9993897E78746E68653A
:1009200064605B5652515353535555535251515075
:100930004E4D4F50504E4D4E4D494546494A4A4DF9
:100940004F515354545352504F4F4E4E4F4E50519F
:100950004E4B494A4B4D4D4B4A4B4C4D4D4D4B4BDD
:100960004C4C4E545C626469727F8D95979899994E
:100970009A9A9A9C9C9B9C9D9E9E9D9E9FA2A29DA6
:10098000849E9E9F9F9FA3A2A09E9E9E9E9E9D9D95
:100990009D9C9B9B9B9997948C7E716E6D69625E0A
:1009A0005C58545250505253545656535151514F13
:1009B0004D4E4F4F4F4D4B4B4C4A47494D4F4F506B
:1009C000505052545554545453525252514E525204
:1009D0004F4C4C4D4D4E4E4B4B4B4B4A4C4E4C4B53
:1009E0004E4E50565D6060676E78889597979798E1
:1009F000999A9B9C9C9C9D9F9F9F9D9D9D9D9E9D2C
:100A0000849E9D9D9C9CA0A1A09F9F9E9D9D9D9E20
:100A10009D9C9B9A9A958F897F72666567645E59E3
:100A20005754514F4F505255565754504E4E4E4BAF
:100A30004A4C50514E4947474B50555758565655BA
:100A4000524E4D515454535354545453504E525487
:100A500053515051504E4D4C4D4C48474A4D4C4BC4
:100A60004E4F51555A5B5B6368717F8E9295969697
:100A7000989B9C9D9D9E9FA0A09F9E9D9D9E9E9DA0
:100A8000839C9C9D9B9A9EA0A0A09F9E9D9C9D9EAA
:100A90009D9C9A999790877E766B605E61605D5AA7
:100AA00058545252515153555555514B47484B4844
:100AB000474A5055524E4D50555C63625C595A5AE4
:100AC00056504B4D4F504F4E4F5154545151545717
:100AD000575553545452504E4D494240464C4B4A40
:100AE0004C4E4F505252535C636873828B9296986F
:100AF0009B9E9E9E9E9F9F9F9F9F9E9D9D9E9E9D17
:100B0000829C9EA0A09E9FA09F9E9E9E9E9E9E9E1B
:100B10009D9C9A98938B8179726A605C5C5C5C5B4B
:100B200058545355545453514F5052525052555497
:100B300052535A6061606165676A6A645C5B6165B3
:100B40006660585757575755565A60605B58585902
:100B50005957545553504E4D4C48413E44494747D0
:100B60004A4C4C4C4C4A4B5660656C7A8690979A2E
:100B70009FA29F9E9F9F9E9D9C9D9D9D9C9D9C9C9A
:100B8000829DA0A4A6A4A29F9E9D9D9FA0A09F9E83
:100B90009D9D9C9891877F777068605C59575657E8
:100BA000575452545659595553575E64686A6A6B84
:100BB0006A696D727374787B7976726C6668717726
:100BC0007975706E6E6E6E6D6F7377756F69646236
:100BD00062615D5D5A57555455544F4C4F4F4946CD
:100BE0004848494B4B4848525C636A76808B9399DE
:100BF0009FA39F9D9FA09E9B9A9B9D9D9C9C9D9D1E
:100C0000829DA1A5A8A6A29F9E9D9EA0A1A19F9DF9
:100C10009C9D9D998E837B756D645D5B585350528E
:100C200054535355596167696A6D72787D7F7F812E
:100C3000818182858484878A878483807E81888974
:100C40008583848487898A8B8C8E8C89847F7A774C
:100C50007776727372706D6C6D6F6C696661564EEB
:100C60004946474A4D4C494F575E656E78828B9393
:100C70009CA29F9D9EA09F9C9B9C9D9D9C9B9E9E9D
:100C8000829D9FA3A4A3A1A0A0A1A1A2A2A19F9D78
:100C90009C9C9C96897B7571695F595957524E503F
:100CA0005354575E6670777C80838486898C8E8EE1
:100CB0008D8E939695939395959494929092979701
:100CC000928F909092979A9A9A999591908E8D8CF6
:100CD0008B8985878A878382848787837C71645A1E
:100CE000544D4A4B4E4F4C4F53575D656F79838C33
:100CF000969F9F9C9D9F9F9D9D9D9E9D9C9B9E9E24
:100D0000849E9FA0A1A0A1A2A3A4A4A3A3A19F9DF0
:100D10009C9A98918274706E665C575756545254E0
:100D200055575E6A747C81868D91919294959491C9
:100D30008E9199A0A19E9B99999B9D9B999B9FA108
:100D40009D9B9A9695999C9C9B9B9998999798990D
:100D50009A99959598958F8D8E90918D877D736CCE
:100D6000665D554F4E4F4F50525458616A747E889D
:100D7000929B9B9A9C9E9E9E9D9E9E9D9C9B9E9DB3
:100D800085A0A0A0A0A0A1A2A3A4A4A4A3A2A09E69
:100D90009D98958E7F706D6D655953545556585C6E
:100DA0005E616C798286888B9197999B9D9C9892C5
:100DB0008F9299A1A5A29C97989C9F9F9E9D9FA270
:100DC000A2A1A09997999A99999B9B9C9C999B9D6C
:100DD0009FA19E9B9C9A96949290908E8A85807DEE
:100DE000796F62544C4C4F525253575F67707B86F9
:100DF0008F9797989B9C9D9D9D9D9E9D9D9C9E9D44
:100E000086A0A0A0A1A0A0A0A1A1A2A2A3A3A19FEF
:100E10009D97948E7F706D6C64574F5054585D67EA
:100E20006D737E8A8F91909093999CA0A2A09B97BE
:100E30009596999FA2A09A979B9FA1A2A09D9B9DEA
:100E40009E9F9F9C9B9D9C9A9A9B9A999896999BF2
:100E50009D9F9D9B9B9C9C9B979492918E8A88873B
:100E6000857D6F5A4B484D515051555A616A778470
:100E70008D9696989B9B9B9B9C9C9D9D9D9E9F9ECB
:100E800085A0A0A1A1A0A0A0A0A1A1A0A2A3A29F73
:100E90009C97938C7D706B6A63595152555963705E
:100EA00078838E949696949495999DA0A2A19E9CE9
:100EB0009B9A9B9D9FA09E9EA0A2A2A2A19E9C9D4C
:100EC0009EA0A2A1A1A19F9D9C9C9B9B9B9A9A9A4C
:100ED0009B9D9D9B9B9D9F9F9D9A999795918F8F81
:100EE0008E897D68534A4E514F4E51565C667583CC
:100EF0008E97999A9B999A9B9C9C9D9E9D9E9F9E46
:100F000085A0A1A1A1A0A1A0A0A1A09FA0A2A19EF7
:100F10009C96928C7D6F6865625D5857595D6573CC
:100F20007E8A939596979797989B9D9F9F9F9F9E4C
:100F30009F9E9D9D9E9FA1A3A4A3A2A2A1A09E9DB2
:100F40009FA1A2A2A1A1A09F9D9D9D9D9E9D9B9BB7
:100F50009C9D9D9D9C9D9F9F9E9D9D9D9B989595D5
:100F6000938F84725E5454524D4A4D545B65728027
:100F70008D979B9C9B9A9A9B9B9B9C9D9D9D9E9DC8
:100F800087A3A2A09FA0A1A0A0A0A09E9FA1A09D7A
:100F90009B95918C7F716663615F5C5A5E63687438
:100FA000808C91929497999A9B9D9D9D9C9D9E9FCC
:100FB000A0A09F9E9E9FA1A2A3A3A2A2A1A09E9E2D
:100FC0009FA09F9F9FA0A09F9E9E9E9E9E9E9C9C3A
:100FD0009D9E9E9E9D9D9D9D9D9D9E9E9D9B999847
:100FE000969085786A5F58534B464A545D656F7D8D
:1010F0008994999B9B9B9B9B9A9B9C9D9E9E9E9E4D
:1010000089A5A39F9EA0A09F9FA0A09E9FA1A09DF9
:101010009B948F8A81756B64605B59575E676E79AC
:10102000868E919193989B9D9E9F9E9C9C9EA0A036
:10103000A0A0A09F9F9F9FA0A2A2A2A2A2A19F9FAB
:101040009F9F9F9E9E9E9E9E9E9E9E9F9F9F9E9DBB
:101050009D9E9F9F9E9D9C9C9D9D9E9E9D9B9A99C3
:101060009791877D74685B52494448535E646D79FB
:10107000868F95989B9C9C9B9B9C9C9D9D9F9B9CDD
:1010800088A5A39E9D9FA09F9FA0A09FA0A1A19E79
:101090009A938D88807870685E5552535D6A758129
:1010A0008B90919294999C9D9E9F9F9D9DA0A1A0A5
:1010B0009F9E9FA0A09F9D9EA1A2A1A2A2A1A0A031
:1010C0009FA0A09E9E9D9D9D9D9E9E9FA09F9E9E3B
:1010D0009E9F9F9F9D9D9C9C9D9E9E9E9D9A999844
:1010E000969189827D7060564C474B545D646C7953
:1011F000858B9195999C9D9C9C9C9C9C9D9F9B9C68
:1011000085A3A29D9C9E9F9F9FA0A0A0A0A1A19F00
:101110009A928C867E7871685D524F545F6D7C88A0
:101120008E8F909295999C9C9D9E9F9E9FA1A1A021
:101130009F9E9E9F9F9E9D9EA1A1A0A1A1A1A1A0B7
:10114000A0A0A09E9D9C9C9C9D9E9FA0A09F9F9EBA
:101150009E9E9F9E9D9D9D9D9D9E9E9E9C9A9998C4
:1011600097948D8A887E6C61554D4D535B626C7986
:1011700083888D93989C9D9C9C9C9C9B9C9D9A9BFA
:1011800083A0A09E9C9E9F9FA0A1A0A0A0A1A19F84
:1011900099928B857E776E655B51505A65707E891A
:1011A0008E8F8F9296999B9C9C9E9F9FA0A0A0A0A3
:1011B0009F9F9E9E9E9D9D9EA0A0A0A0A1A1A1A13B
:1011C000A09F9F9D9C9C9C9D9D9E9F9F9F9E9E9E41
:1011D0009D9E9E9E9D9D9E9D9E9E9E9D9C9A999944
:1011E0009996908E8D85756B5E524D5158606C78D6
:1012F0007F848C93999D9D9C9B9C9C9B9B9C9D9E7D
:10120000829E9F9E9D9EA0A1A1A1A1A0A0A09F9E05
:101210009A928B8580796B60585152606A727E8891
:101220008D909194989A9C9D9E9E9FA0A0A0A0A016
:101230009F9E9E9F9F9F9E9EA0A0A0A0A1A1A1A1B6
:10124000A09F9F9E9E9E9E9E9E9E9E9F9E9E9E9DBA
:101250009D9E9E9E9E9E9E9E9D9D9D9C9B9A9999C5
:1012600099968F8C897E726A5F534E50575F6C7768
:101270007C838C959C9D9C9B9B9B9B9B9B9C9D9D01
:10128000829D9F9F9E9EA0A2A2A1A0A09F9E9E9E87
:101290009A928A86837B6B5D565153626B737F870C
:1012A0008D9295989A9B9D9F9F9E9FA0A09FA09F87
:1012B0009E9E9FA0A1A09F9E9F9FA0A0A0A0A1A135
:1012C000A0A0A0A09FA0A09F9E9E9E9E9E9E9E9D31
:1012D0009D9E9E9E9E9E9E9E9D9C9C9B9A9A9A9948
:1012E0009996908B84786D675F565252575E6D78F1
:1013F0007B838C979D9D9C9B9B9B9B9C9C9C9D9D7C
:10130000829D9E9F9E9D9FA1A1A09F9F9E9D9D9D12
:101310009B938B86837A695C565456626B7582897F
:101320008E93979A9B9B9DA0A09E9EA09F9D9E9F03
:101330009E9F9FA0A1A09F9E9F9FA0A0A0A0A0A0B5
:10134000A0A0A0A0A0A0A09F9E9E9F9F9F9F9E9EAA
:101350009E9E9E9E9E9E9E9E9D9C9B9B9B9B9B9AC3
:101360009996908D85786E6860595555575D6D7862
:101370007A828A959C9B9A9B9B9A9B9C9B9D9B9B0C
:10138000839E9E9E9D9D9FA0A09F9F9E9D9C9C9C9A
:101390009C958C868178665B585658626B77848AF8
:1013A0008E93979B9C9C9DA0A09E9EA09E9D9D9E83
:1013B0009FA0A0A0A09F9F9F9FA0A0A0A0A0A0A032
:1013C000A0A09F9F9F9F9F9E9E9E9FA09F9F9E9E2F
:1013D0009E9E9E9E9D9E9E9D9C9C9C9C9B9C9C9A42
:1013E000989491908A7E736B625B5655565C6C77CD
:1014F000798089959B9A9A9C9B9A9B9B9B9A9C9B93
:10140000849F9F9E9E9EA0A0A0A09F9E9D9D9B9A14
:101410009C968D857F75655B59585A636C7682887A
:101420008D91969B9D9E9D9FA1A0A2A19F9E9E9FF8
:101430009FA0A1A1A0A09FA0A0A1A0A09F9F9F9FAF
:101440009F9E9E9E9E9E9E9E9E9F9FA09F9F9E9EB5
:101450009E9E9E9E9D9E9E9C9C9D9D9C9B9A9A99C5
:10146000989592908C81756A62595453545C697452
:1014700079818B969C9C9C9D9C9A9A9B9B9B9D9C06
:10148000839E9E9D9D9C9D9E9FA0A09E9D9C9A98A4
:1014900098948D857D73635A5A5B5E646C75808702
:1014A0008D92979A9A9C9DA0A4A4A6A4A1A09F9F68
:1014B000A0A0A1A1A0A0A0A0A0A0A09F9F9E9E9E32
:1014C0009E9D9D9D9D9D9E9E9E9FA0A09F9E9E9D3C
:1014D0009D9E9E9E9D9D9D9C9C9C9C9A9999989852
:1014E000989694918C817469615750505359646FE8
:1015F00078828D969C9C9D9D9B99999B9C9B9D9C84
:10150000839F9E9E9D9C9C9D9FA1A1A0A09F9C9718
:1015100096948E857C72635A595C5F636A747E858B
:101520008C94999A9A9B9B9EA1A1A3A2A0A0A0A0F3
:10153000A0A0A0A09F9F9F9FA09F9F9E9D9D9D9DBF
:101540009C9C9D9D9D9D9D9E9FA0A0A09F9E9E9DBD
:101550009D9E9E9E9D9D9D9C9C9C9B9999999998D2
:10156000989593908A80746962564B4B50555E6A89
:1015700076828B92979A9C9B9897999B9C9CA19E14
:10158000839F9F9E9D9C9C9C9E9F9FA0A2A29D9797
:1015900096948E857B726459575B5E6168737D8417
:1015A0008C969C9B9C9C9A9A9C9B9E9E9D9E9F9F8A
:1015B0009F9F9F9E9E9D9E9F9F9F9F9E9D9D9D9D49
:1015C0009C9C9D9D9D9D9D9E9FA0A0A09F9E9E9D3D
:1015D0009D9E9E9E9D9C9D9D9E9D9B9A9A9B9A9949
:1015E0009795928E8880756C64574A484F545B6813
:1016F0007582898C91989B9A9797999B9C9CA6A29E
:10160000829D9D9C9C9B9B9B9B9B9B9EA1A29D9630
:1016100094928B817870655853575D6068747D83B0
:101620008B979E9B9C9C9B9B9C9B9D9D9D9D9E9E0A
:101630009E9E9E9D9C9C9D9E9F9F9F9E9D9E9E9ECE
:101640009D9D9D9D9D9D9D9E9E9F9F9F9F9E9E9DBE
:101650009D9D9E9E9D9C9D9E9F9E9C9B9C9C9B9ABF
:101660009996928D8881786E65594C4952575E6A79
:10167000778288898E979C9A97989A9B9B9BA09D2E
:10168000829D9D9D9D9C9D9D9D9C9C9EA1A29E97A3
:10169000928E867C746F65564F545E626B777E8245
:1016A0008A989F9C9C9C9C9D9E9E9F9E9E9E9D9D7D
:1016B0009D9E9D9C9B9B9C9E9F9F9F9E9E9E9F9F51
:1016C0009E9D9D9D9D9D9D9E9E9E9D9E9E9E9E9D42
:1016D0009D9E9E9E9D9C9D9E9F9F9E9D9E9D9B9A36
:1016E0009A97948E88817A70695D504C555B636FD0
:1017F0007A83888A919A9D9B99999B9B9A9BA09D9D
:10170000829C9B9B9C9C9D9F9FA09F9FA0A09D9720
:10171000918C867D746F65554E545E636C787E7FC8
:101720008898A09E9E9E9E9E9E9D9E9E9E9E9E9DF5
:101730009D9E9E9D9C9C9C9D9F9F9E9E9E9F9F9FCD
:101740009E9D9D9D9E9E9E9E9D9D9C9D9E9E9D9DC3
:101750009D9D9E9D9D9C9C9D9E9F9E9E9F9E9B9AB7
:101760009A999790878079706A5F514D555C667140
:101770007B82878C949B9D9B9A9B9B9B9B9A9C9C1A
:10178000819B9A9B9C9C9C9EA0A1A09E9E9E9B98A8
:10179000948E8981777165554F565D626B777C7E3B
:1017A0008898A09FA0A09F9E9D9C9D9E9FA09F9E6D
:1017B0009E9E9E9E9D9D9D9E9F9F9E9D9E9E9F9F49
:1017C0009E9D9E9E9F9F9F9E9E9D9C9C9D9D9D9C41
:1017D0009C9D9D9D9C9C9C9C9D9E9F9E9E9D9B9A3E
:1017E0009A9B9B92877E756C655D534E535A6672C9
:1018F0007A81878D949A9A999A9B9B9B9C9C9D9E9A
:10180000809B9B9B9D9C9C9D9FA0A09E9D9C9A982D
:1018100096908B84797265554F565C616A757C7EB3
:101820008A9AA19E9E9F9F9F9F9E9F9FA0A09F9EE2
:101830009D9E9F9F9F9E9D9E9F9F9E9D9D9E9F9FC5
:101840009E9D9E9F9F9F9E9E9D9D9C9C9D9D9D9CC1
:101850009C9D9D9D9C9C9C9B9C9E9E9D9D9D9C9CBF
:101860009C9D9C93877D73675F5954515258657155
:101870007980868D939696969A9D9C9B9C9E9D9C26
:101880007F999A9A9C9B9C9C9D9E9F9E9E9C9A97BA
:10189000978F8A83776F62524D555C626A767E813C
:1018A0008D9BA09D9D9E9F9F9F9E9E9FA0A09F9E63
:1018B0009D9E9FA09F9E9E9E9F9F9E9D9D9E9F9E44
:1018C0009D9D9E9E9E9E9D9D9C9C9C9D9D9D9D9C48
:1018D0009C9D9D9D9C9C9C9B9C9D9D9C9C9C9D9C43
:1018E0009C9C9B93887F75675D5956525055626EDC
:1019F000777D858D939595979C9F9E9C9D9E9D9CA4
:101900007F9A9B9B9B9B9D9D9C9D9F9E9D9B99973A
:1019100097918C86796D615048515C646C767E84B9
:101920008F9A9E9D9E9FA0A0A09F9E9E9F9F9F9EE0
:101930009D9D9FA09F9E9E9E9F9E9D9D9D9E9F9FC5
:101940009D9D9F9F9E9E9E9D9C9D9F9F9E9E9D9CBC
:101950009C9E9F9E9C9C9C9B9B9C9C9B9A9B9C9BC7
:101960009A9A9B948A81776B615D584F4A515E6B5E
:10197000747D848D9497999CA1A29F9D9D9F9F9D0E
:10198000809C9D9D9C9C9E9D9D9E9E9D9C9A9998B1
:1019900097938F887C6D6251464D5A646C757D8536
:1019A0008F96999B9E9F9FA0A0A09E9D9E9E9F9E6E
:1019B0009D9E9F9F9E9D9D9E9F9E9C9C9D9E9F9F4A
:1019C0009E9E9F9F9F9E9E9C9C9DA1A29F9E9E9D32
:1019D0009D9FA19F9D9C9C9B9A9A9A9A9A9A9A994C
:1019E00097989A958D82776D66635A49444E5C69E3
:101AF000737D868F95989B9EA2A29E9D9D9DA09C86
:101A0000809B9D9D9C9D9E9D9D9D9C9B9B9B9A9834
:101A100097938D867C6E6454484A55616D767D84BB
:101A20008C9194989E9F9E9E9F9F9E9D9D9D9D9D07
:101A30009E9FA0A09F9E9D9D9E9D9B9B9D9FA09FC6
:101A40009D9E9F9F9E9E9C9B9B9DA1A29F9E9E9DB7
:101A50009EA0A29F9D9C9C9B9A9A9A9A9A9A9A98C9
:101A6000959496948E83776E68655A47424C5C686D
:101A7000717C88909497999B9E9E9C9C9B9A9F9B1F
:101A8000809B9D9D9C9C9D9D9D9D9B9A9B9C9B98B6
:101A900095918B847B6E64574B49515F6E787E8441
:101AA0008A8F92979E9F9D9D9E9E9D9C9B9C9C9E97
:101AB0009FA0A1A1A1A09F9E9E9C9A9A9DA0A09D3F
:101AC0009C9D9E9F9E9E9D9B9B9DA0A19E9D9E9D3D
:101AD0009EA0A19F9C9B9B9B9A9A9A9A9A9A9A974E
:101AE000949495948E85796F67645B4A464E5E6ADE
:101BF000707A878F939697999B9C9A9B9B9A9F9BB1
:101B0000819B9C9D9C9C9D9D9D9D9C9B9C9D9B9732
:101B1000938F8A837A6E63574D4A4E5F707A7F83C4
:101B2000898E93999F9E9D9D9F9F9E9C9B9B9C9D14
:101B30009E9E9FA0A1A19F9E9D9C99999DA19F9BC8
:101B40009A9C9E9F9F9F9E9D9C9D9F9F9E9E9E9EBA
:101B50009E9FA09D9B9B9B9B9A9A9B9B9A9A9A97D0
:101B6000959696938D857B6F625D584D4951616D59
:101B7000727A858D929697999B9B9B9B9B9B9D9B35
:101B8000829B9D9E9E9D9D9C9D9E9D9D9D9C9A96AB
:101B9000918D88837A6D63574E4B4E5F717B7F8347
:101BA000888E949A9E9E9D9FA1A09F9D9C9C9C9B8D
:101BB0009B9C9D9F9F9E9D9D9D9C99999DA09E995C
:101BC000989B9E9E9E9F9F9E9D9D9E9E9E9E9F9F3C
:101BD0009F9F9F9D9B9B9B9B9B9B9B9B9B9B9A974C
:101BE000969896908A847C6F5D54524D4C546571E2
:101CF000767D858C919698999B9B9B9B9A9A9DA0AB
:101C0000829C9E9F9F9F9D9C9C9E9E9D9D9C999526
:101C1000918C8782796F65584E4D4F60727B7E83C1
:101C2000888E94999C9C9D9EA09F9D9C9D9D9C9B15
:101C30009B9C9E9E9C9C9C9D9E9D9B9A9EA09D98DD
:101C4000989B9E9E9D9E9E9E9D9D9C9D9E9EA0A0BF
:101C50009F9F9F9D9C9C9C9C9B9B9B9B9B9B9A98C6
:101C60009798938C86827C6F5B514F4E4D5667736D
:101C7000777F868D9398999A9B9C9C9B9B9A9DA11C
:101C8000829C9E9F9FA09E9C9C9E9E9E9D9C9A96A1
:101C9000938C8680787067584E4D5160717B80863A
:101CA0008C9196999B9C9C9D9D9C9B9C9D9E9D9C94
:101CB0009D9FA09E9B9A9C9E9F9E9C9C9E9F9D9A52
:101CC000999C9F9E9D9C9C9D9D9C9C9C9D9D9F9F47
:101CD0009E9E9E9D9D9D9C9C9C9C9C9C9C9B9B9940
:101CE0009997918B86817C706055514D4B566771E9
:101DF000757C858E969A9A9B9C9C9C9C9C9A9DA196
:101D0000829C9D9D9D9E9E9D9D9E9E9E9F9F9C981C
:101D1000958F877E767066584E4E54606E79828AB3
:101D200092989B9C9C9D9D9D9C9C9B9D9E9E9C9DFA
:101D30009FA1A19F9C9B9C9E9F9E9E9D9E9F9D9CC4
:101D40009C9E9F9E9D9C9C9C9C9C9C9C9C9C9D9DC9
:101D50009C9C9C9C9C9D9D9D9D9C9C9C9C9C9B9BC1
:101D60009B98918E89837C74675A514A4854636C5E
:101D700071778390989B999B9C9B9B9B9C9E9D9D20
:101D8000829C9D9C9C9D9C9C9D9D9E9FA1A19F9A99
:101D900097948A7D736D63564E4F565F6B76818C38
:101DA000969C9F9E9D9E9F9E9D9C9C9E9F9E9C9C64
:101DB0009E9F9F9F9E9D9D9E9E9E9E9E9E9E9E9D43
:101DC0009E9E9F9E9E9D9C9C9C9C9C9C9C9B9C9B49
:101DD0009B9B9B9B9B9C9C9D9D9C9B9C9C9C9B9B49
:101DE0009C9B95928E857D766C5E514747536069CA
:101EF0006F748190999A989A9B9B9B9A9C9D9D9BAD
:101E0000819C9D9C9B9C9B9B9D9D9D9EA1A3A09B1B
:101E100097968D7D726B60544F52585E68737F8BBE
:101E2000969E9F9D9C9D9E9E9D9C9C9E9E9D9D9DE5
:101E30009D9D9EA0A1A1A09F9E9E9E9E9E9D9E9EBA
:101E40009F9F9E9E9E9E9D9B9B9C9C9C9C9B9B9BC8
:101E50009A9B9B9B9B9C9C9D9D9C9B9C9C9C9C9BC8
:101E60009C9C98958F867E766E61534B4B56606A2C
:101E700071738090999A989A9B9B9B9B9B9D9C9B2E
:101E8000809C9D9C9C9C9D9D9C9D9B9C9EA19F99A4
:101E900094938B7D736F615450565C6068747E8838
:101EA000939C9E9B9C9C9D9E9E9D9C9E9F9D9E9E6A
:101EB0009D9D9EA0A3A5A3A09E9D9D9D9D9D9E9E34
:101EC0009F9F9E9D9E9E9D9B9B9D9D9D9D9D9C9B42
:101ED0009B9B9B9B9C9C9D9F9F9C9B9C9C9D9C9C3F
:101EE0009C9B98938D877F756D61554F5056606AA6
:101FF0007276818E979A999B9A9A9B9B9B9D9C9BAC
:101F0000809B9C9C9C9B9C9B9A9B99989A9D9E983D
:101F1000928F877D75705F4D4A535B6069747E86D2
:101F2000909A9D9B9B9B9C9D9E9D9C9D9E9C9D9DF8
:101F30009E9E9E9FA2A3A19E9C9C9C9D9D9E9E9FBB
:101F40009F9F9E9C9D9E9C9A9B9D9D9C9C9C9C9CC7
:101F50009B9B9B9C9C9D9E9D9C9B9D9F9D9C9C9CBC
:101F60009C9C99918B898477695B525050565F6A2B
:101F70007379838D959A9A9B9A9A9B9B9B9B9B9E28
:101F8000809B9B9B9B9B9A98999A9897999D9E99C9
:101F9000948B847C756D5A46404C585F67737D8581
:101FA0008E989D9C9B9B9C9C9D9E9C9D9D9C9C9C7F
:101FB0009D9E9D9D9E9E9D9B9A9A9C9D9E9E9E9F52
:101FC0009F9F9E9D9D9E9D9B9B9D9D9B9B9B9C9C47
:101FD0009C9C9C9C9C9C9C9A9899A0A49F9A999A42
:1020E0009B9D9B918B8B887966554D4D4C525D69BC
:1020F000737B848C949A9A9B9B9A9A9A9B9C9E9FA2
:10200000809B9A9A9B9A9B9A9B9C9A9A9B9FA09C36
:102010009489827D746B5A453F4A565E67737D840E
:102020008D979D9E9D9D9C9B9C9E9D9E9E9D9D9DF6
:102030009D9D9C9B9B9C9C9B98999B9D9D9D9D9DE4
:102040009D9E9D9D9D9E9D9C9D9D9D9C9B9B9C9CC6
:102050009C9C9C9C9C9C9B9A999AA1A6A0999899BF
:102060009C9F9E948D8C897A66564F4B464C5A683D
:10207000737B828B9399999A9A9A99999A9B9B9739
:10208000809B9A9A9B9A9B9B9D9D9C9B9D9FA09CAD
:102090009389847D726A5E4E484F575E69757E846F
:1020A0008D969DA09E9D9C9B9DA09F9E9E9E9E9D6D
:1020B0009D9D9C9B9B9C9E9D9B9B9D9E9E9E9E9D55
:1020C0009C9C9C9C9D9E9E9D9E9E9D9C9B9C9D9D44
:1020D0009D9D9D9D9D9D9D9D9B999CA09D9A9A9B3C
:1021E0009DA09E96908D897B695C554E454B5967A5
:1021F000727A828B93979798999999989A9B9B97C3
:10210000809B9A9A9B9A9B9B9C9D9B9B9C9E9E9935
:10211000928B877F726B63585356585F6A767E84C2
:102120008C949DA29D9C9C9C9EA1A09D9D9D9E9CEF
:102130009D9E9E9D9C9D9F9E9C9D9E9E9E9E9D9CC9
:102140009A9A9B9C9C9D9D9E9E9D9D9C9D9D9D9EC7
:102150009E9E9E9E9E9E9E9E9D9997999A9B9C9DBB
:102160009D9D9B97928E887C6C60574D454D5A661D
:102170007077818C93979697989999999B9C9C944A
:102180007F9A9B9B9B9A9B9B9C9C9A9B9B9C9B96C0
:10219000918E897F736C645C5958575E6B767D8431
:1021A0008A929CA19D9B9C9D9EA09F9C9B9C9E9C7B
:1021B0009D9E9F9E9E9E9F9E9D9D9D9D9D9E9E9C45
:1021C0009A9A9B9C9C9C9D9E9D9C9C9C9D9D9D9E4B
:1021D0009E9E9E9E9E9E9D9E9E9B98989A9D9C9C38
:1022E0009C9B9996928D867C6E61554A47525F6899
:1022F0007075818D949795979999999A9B9DA099BE
:102200007F9A9B9B9C9C9C9C9C9B9A9B9B9B9A953E
:10221000918E897F746C61595655555C6A757B84C3
:102220008B9199A09E9C9D9D9D9E9D9C9C9E9F9EFA
:102230009D9E9E9E9D9E9F9F9E9E9E9E9E9FA09FBA
:102240009D9B9B9C9C9C9D9E9D9C9B9C9D9D9D9EC7
:102250009E9E9E9E9E9E9D9C9E9E9D9C9C9E9C9AAC
:102260009A9A9996918A837A6D6154484A59666E12
:102270007478828E959696999998999A9B9C9C9B36
:102280007F9A9B9C9E9E9D9C9C9A989A9B9B9996BC
:10229000918E887E766D5E545151525A69747A8659
:1022A0008D91979E9F9C9D9E9D9D9C9D9FA1A19F72
:1022B0009E9E9D9C9C9E9F9E9E9E9D9C9C9E9F9F45
:1022C0009D9C9C9D9D9C9E9F9E9C9C9D9D9D9D9E3E
:1022D0009E9E9D9D9D9F9E9D9E9F9E9E9D9E9C9928
:1023E000989A9A97908780796D6153464959676E9C
:1023F0007479818C9495979B9B98999B9C9C9C9BB2
:102300007F9B9C9EA1A19D9C9C9A97999A9B9A9732
:10231000918E887F776E5E524F50515868737A88DD
:102320009092979C9C9A9C9E9D9D9C9D9FA0A09EF8
:102330009E9E9D9C9C9E9E9D9D9E9D9C9B9C9E9ECC
:102340009D9C9B9C9C9C9EA09F9D9D9D9D9E9E9EBA
:102350009E9E9D9C9C9D9E9E9F9E9F9F9D9D9B99AA
:10236000979897958E86807A6E6153464756626835
:102370006E78808B9395999E9D999A9C9D9C99A12E
:10238000819C9D9FA2A19D9C9D9B98999B9C9B98A5
:10239000918D8A82797160535051525A69737A8A49
:1023A0009294979B9A999C9E9E9E9D9D9E9E9E9D7B
:1023B0009D9D9D9C9C9E9E9D9E9F9F9D9C9D9E9F46
:1023C0009E9C9A9A9B9B9D9F9F9E9D9E9F9FA0A037
:1023D0009F9E9D9C9C9C9D9FA09E9FA09E9D9B9A26
:1024E0009A9795938F87807C7266564746525D63B4
:1024F0006C78808A929499A09E999A9C9E9E9FAE99
:10240000839E9F9F9F9E9C9C9F9E9B9B9D9D9C9916
:10241000928D8B867B7361545153575E6A737A8AAF
:102420009496999D9D9C9D9E9E9F9D9D9D9E9E9DEB
:102430009C9C9D9B9B9E9E9EA0A0A09E9D9FA0A0BD
:102440009F9C9A999A9C9D9E9E9F9E9E9FA0A0A0B5
:102450009F9E9E9E9D9D9D9E9E9E9E9FA09F9D9E9B
:102460009D9997959289807E796D5B4A46505B6510
:10247000707B828A929598A09D98989B9D9F9F9B28
:10248000829D9E9E9D9D9D9D9F9F9D9EA0A09E9B8B
:10249000948C89857C725F5250545A616A6F788A35
:1024A000969A9DA0A09E9F9F9E9F9D9E9FA0A09E4E
:1024B0009D9E9E9C9B9D9D9EA1A09F9D9D9FA0A03B
:1024C0009E9D9C9B9C9D9D9E9E9F9E9D9E9F9F9F33
:1024D0009F9E9E9E9D9D9C9C9D9E9E9FA0A09D9D1F
:1025E0009C989896938B817F7A6E5D4D494F5A687F
:1025F000757E838C9395979E9C97989A9C9F9F9BA2
:10250000829D9E9E9D9D9E9D9E9F9F9FA1A19F9B04
:10251000948C86837C715F514F565E64686C768ABA
:10252000979B9D9F9F9E9E9F9F9F9D9EA0A2A2A0C6
:102530009FA0A09D9B9D9EA0A2A19F9E9EA0A0A0AB
:102540009F9E9E9D9D9D9E9E9E9F9D9C9D9E9E9EB0
:102550009E9E9E9D9D9C9C9C9D9D9E9FA1A19E9CA0
:102560009B999A98948B817E786A5A4F4A4D596903
:10257000777F848D9494969B9B97989A9B9C9E9B27
:10258000829C9D9D9D9E9E9D9EA0A09E9E9F9E9B8B
:10259000948C86827C71615451575F666A6D788B2A
:1025A000979A9A9C9E9C9C9D9F9F9D9DA0A3A3A152
:1025B000A0A1A19E9C9EA0A1A3A09F9E9FA0A0A021
:1025C0009FA0A19F9F9E9E9F9E9E9D9D9F9F9E9D23
:1025D0009D9D9D9D9D9C9C9B9C9D9E9FA1A19F9D23
:1026E0009C9B9C9992897F7B7263554F4C4D586A95
:1026F000787F858F959495999A98989B9B9B9F9BA3
:10260000819B9C9D9D9E9F9EA1A4A19C9B9C9D9B0C
:10261000958D88837C73675A54565E676C717E8E85
:102620009899999B9D9B9A9C9EA09D9EA0A2A3A1D8
:10263000A0A2A29F9C9E9F9FA09E9D9D9E9F9F9FAC
:102640009FA1A2A09F9E9E9F9E9E9D9DA0A09F9D9C
:102650009C9D9D9E9D9D9C9B9C9D9E9FA1A19F9DA1
:102660009C9B9C9890877E786F5E51504F4F5A6C20
:1026700079808891959395979999999B9B9B9E9B1F
:10268000819A9B9C9D9E9F9FA2A5A19A999B9D9C90
:10269000999189837B746A5E55535A646C758290F4
:1026A0009798999D9F9C9B9C9FA2A0A0A1A2A1A04E
:1026B000A1A3A3A09D9D9C9C9D9D9C9D9E9F9E9E35
:1026C0009FA1A2A09F9E9E9F9F9F9E9D9F9F9E9D1C
:1026D0009C9D9D9D9D9C9C9B9B9C9D9E9F9F9E9C2D
:1027E0009B9B9C989189817A705D505150505C6D93
:1027F000777E879195939597999A999A9A9B9E9BA4
:10270000819A9B9D9E9F9F9FA2A39F99999C9D9D0F
:102710009D948A8279746A5E545057616C78838E76
:102720009396999DA09D9A9A9DA09F9FA0A1A1A0DC
:10273000A0A2A2A09E9E9C9B9D9D9D9E9F9F9E9EB3
:102740009FA2A2A09F9F9F9F9FA09F9E9F9F9F9F92
:102750009F9F9F9E9C9C9C9B9C9D9D9D9E9E9D9CA7
:102760009C9C9E9A928B847C725F514F4E4E5C6D06
:102770007479828F959597989A9B9A99999A9B9A32
:1027800080999B9D9F9F9F9FA0A19D9B9C9D9D9E8F
:10279000A1978B837A74695C514E565F6C79838BF9
:1027A0009094989D9F9C9A999B9F9E9E9FA0A1A06C
:1027B000A0A0A0A0A1A2A09D9D9E9E9F9F9E9E9E28
:1027C0009FA0A19F9F9E9E9F9FA09F9FA0A1A2A20E
:1027D000A2A2A19F9D9C9D9C9C9D9D9D9D9D9D9C1D
:1028E0009D9D9F9B9289837B7161524D4B4C5A6B8E
:1028F00072767E8D969698999B9C9B9999999C9CB3
:102800007F989A9C9E9F9F9FA0A09E9D9E9E9EA00B
:10281000A39A8E857D74685B504E575E6B7A828A70
:102820008E93989C9E9D9C9C9EA0A0A0A1A1A1A0DF
:10283000A0A0A1A2A4A7A49F9D9E9E9E9E9C9D9D9C
:102840009D9E9F9D9D9D9D9E9D9F9E9FA2A3A3A398
:10285000A3A3A2A09E9D9D9C9D9E9D9C9C9D9D9C96
:102860009D9E9F9A8F8680797162534D4B4C5A6A18
:1028700072777E8C979798999B9D9C9A9A9A9E9D29
:10288000809A9B9D9E9E9F9F9F9F9F9E9E9D9DA089
:10289000A39B908981756A5C504E555968788189EF
:1028A0008F959A9B9B9B9D9E9FA1A0A0A1A09F9F5F
:1028B000A0A1A3A4A7A8A49F9E9F9E9E9D9C9E9E10
:1028C0009D9E9D9C9D9C9C9D9C9D9D9D9F9F9F9F33
:1028D000A0A09F9E9C9C9C9C9D9D9D9B9C9C9C9D28
:1029E0009D9E9F998E857F7A7465544D4C4D5B6A90
:1029F000737A808D979798999C9E9D9B9B9A9E9D9C
:10290000839D9D9E9E9E9F9F9F9F9F9F9D9C9DA000
:10291000A198908B8476695D5453595A6777818A60
:1029200091999C9B9A9B9D9FA0A09FA0A09F9E9EDB
:102930009FA1A1A2A3A4A19E9E9E9E9E9D9D9E9EA0
:102940009E9E9E9D9E9D9D9D9D9E9D9C9C9D9D9DB4
:102950009D9D9E9E9D9C9D9D9D9D9C9C9B9C9C9DAC
:102960009D9D9E988D85807A7364544D4E505C6B0E
:10297000757D818C9598999A9C9D9E9C9B9C9D9B16
:10298000849F9F9F9E9E9F9F9E9E9E9F9D9C9D9F7E
:102990009F948C8B8373655B575A5F5F6876808AE0
:1029A000929B9E9B9B9D9FA0A0A09FA0A1A09E9F4D
:1029B0009FA0A09F9F9F9F9F9E9D9E9D9D9D9E9E31
:1029C0009F9F9F9F9F9F9D9D9E9F9D9C9C9D9D9D2A
:1029D0009D9D9E9E9E9E9E9E9E9D9D9C9B9B9C9D26
:102AE0009D9B9C968C857F786F5F504C50525D6BA0
:102AF000757E818A9397999B9B9C9D9D9C9B9E9D97
:102A0000849E9E9D9D9D9FA09E9E9E9E9D9B9C9E06
:102A10009D918A887F6E6059585D62626A767F896F
:102A200091999D9B9C9FA0A1A1A0A0A1A2A1A0A0C3
:102A3000A0A0A09F9F9F9F9F9E9E9E9E9D9D9D9EAE
:102A40009F9F9F9E9E9E9D9C9D9D9D9C9D9D9D9DAF
:102A50009D9D9D9D9D9D9E9E9E9E9D9C9B9B9B9CAA
:102A60009C9A99948C847D766C5A4C4C51535B673C
:102A7000717A8089919497999B9C9D9C9C9C9D9B2D
:102A8000849D9D9C9D9E9FA09F9E9D9D9C9B9D9F88
:102A90009C918B89806F6159585D63656C757D88E9
:102AA00090989C9D9EA0A0A0A1A1A0A1A2A1A09F42
:102AB0009F9F9F9F9E9E9E9F9F9F9F9E9D9D9D9E31
:102AC0009E9F9F9E9D9E9D9C9C9D9D9E9E9E9D9D2E
:102AD0009D9C9C9C9D9D9C9D9E9E9E9E9D9D9D9D26
:102BE0009C9996928C837B7469584C4D54555A65C8
:102BF0006E77808A909295989A9B9C9B9B9C9D9BBC
:102B0000839C9C9D9E9FA0A0A09E9D9D9B9B9D9F06
:102B10009D948E8D8475665D5A5C63666C747C874B
:102B200090979B9D9E9F9F9FA0A09FA0A0A09F9ECF
:102B30009E9E9E9E9E9E9E9FA09F9E9E9D9D9E9EB3
:102B40009E9F9F9E9E9E9E9D9D9E9E9FA09F9E9EA1
:102B50009E9D9B9C9C9C9C9C9D9D9E9E9F9F9F9EA2
:102B60009B9996938D847A73685A504D53555A6445
:102B70006F767F8B929395989B9B9B9B9B9B9C9B3B
:102B8000819B9C9D9FA0A0A0A09E9D9C9B9A9C9F8A
:102B90009F96908E877A6C635F5E61666D747B87AB
:102BA0009096999C9E9F9E9E9F9F9E9E9F9E9E9E5E
:102BB0009E9E9E9F9F9F9FA0A1A09E9E9E9F9F9F27
:102BC0009F9F9F9E9F9F9F9E9E9F9F9FA19F9F9F16
:102BD0009E9D9B9C9D9D9C9C9C9D9D9D9E9E9F9D26
:102CE0009A9998958F857B72695F534B4E535A65BD
:102CF00071777F8B9395979A9C9C9B9B9C9D9D9CA9
:102C0000809B9C9E9FA0A0A1A19F9D9C9B9A9B9D09
:102C10009D95908D867B6E67646261666D747B871F
:102C20009095989C9E9E9E9E9F9F9E9E9E9D9E9EE2
:102C30009E9E9E9F9FA0A0A1A2A19F9E9FA0A1A09B
:102C40009F9F9FA0A1A09F9FA0A09F9FA1A09F9F8B
:102C50009E9D9C9C9D9E9D9D9D9C9C9B9B9B9B9AB1
:102C60009A9A9B9890867C726C6355484A525B672F
:102C700073797F8B9496999C9C9B9A9B9C9E9D9C20
:102C8000819C9E9F9F9FA0A1A19F9E9D9C9B9B9C82
:102C900099928F8D857A6D66656360646B717784B8
:102CA0008E94999D9F9F9E9EA0A09E9D9D9D9E9F60
:102CB0009F9F9F9F9F9F9FA1A2A19F9E9FA0A1A01A
:102CC0009F9FA0A1A2A1A0A0A1A19F9FA1A19F9E03
:102CD0009E9D9D9D9E9E9E9E9E9D9C9A9998979836
:102DE0009A9C9E9A91877E746E6757494B535D6992
:102DF000747A808A93969A9C9C9B9A9B9C9E9D9C9D
:102D0000829D9FA09F9EA0A2A1A09E9D9C9B9A9AFF
:102D10009691908E85796962615F5C60676C727E66
:102D20008B92989D9F9F9E9FA09F9D9D9D9E9F9FE4
:102D30009F9F9F9F9E9F9FA0A1A09E9E9EA0A09FA1
:102D40009E9FA1A1A2A2A0A0A1A19F9FA1A09F9E82
:102D50009D9D9D9E9F9F9F9F9F9F9D9B99989798AC
:102D60009B9E9D9991877F7570695B4E4E55606BF8
:102D7000757B80899195999B9B9B9A9B9C9D9C9B25
:102D8000829D9F9F9E9E9FA1A19F9E9D9C9A999888
:102D90009591918F8577665D5C5A575C646A717D09
:102DA0008A91959B9F9F9E9E9F9E9C9C9D9D9E9F72
:102DB0009FA09F9E9E9E9E9FA0A09F9E9F9F9F9F25
:102DC0009E9FA0A0A0A1A0A0A0A1A09FA0A09F9D09
:102DD0009C9D9E9F9F9F9F9F9F9F9E9D9B9A999921
:102EE0009C9E9B968E867E7670685C5351555F6B78
:102EF000747A81899195999B9B9B9C9C9C9D9B9CA2
:102E0000829C9E9F9E9D9FA0A19F9D9C9B99979811
:102E10009794938F8577645A5957565B656D768280
:102E20008D9294999FA09E9E9E9E9C9C9D9D9D9EF2
:102E30009E9F9E9D9D9D9E9FA0A0A09F9FA0A09FA6
:102E40009F9F9F9E9E9FA0A09FA1A09F9F9F9F9D91
:102E50009C9D9E9F9F9F9F9F9F9F9E9D9C9C9B9A9A
:102E60009C9D98928B847E766E635A5551525D6A12
:102E7000737A818A91969A9C9C9C9D9D9D9D9C9C19
:102E8000829C9D9F9F9EA0A1A3A39F9D9C99979983
:102E90009B989490887A64585858595C646C7888E8
:102EA0009093969AA1A2A19F9E9E9E9F9E9E9F9F59
:102EB0009E9E9E9D9D9E9E9FA1A1A0A0A0A0A0A021
:102EC000A0A0A09F9E9FA0A0A0A1A09F9FA0A09F08
:102ED0009E9E9E9D9D9E9F9E9D9C9C9C9C9C9B9B24
:102FE0009B9A968F898581786C5C535350525D6AA9
:102FF000747C818A91969B9D9C9D9D9C9D9D9C9C93
:102F0000829B9D9E9F9EA09FA1A39F9D9C99979809
:102F100099979491897B635858585A5C6168758673
:102F20008D91969AA1A3A19F9E9E9FA09F9F9F9FD8
:102F30009F9E9E9E9E9E9FA0A1A1A1A0A0A0A0A09A
:102F4000A0A0A09F9E9F9F9FA0A09F9F9FA09F9F8C
:102F50009F9F9E9D9E9FA09F9D9B9B9B9C9B9A9BA2
:102F60009B99968F8884807566544D5152545E6B40
:102F7000767E82888F949A9B9A9C9D9C9D9F9E9D15
:102F8000829C9C9D9E9E9E9D9FA09D9D9D9A989794
:102F900095949491887A655A5958585B5F65718108
:102FA000898E949A9FA0A09F9E9E9F9F9F9E9F9F69
:102FB000A09F9E9E9E9E9FA0A1A1A1A0A09F9F9F1B
:102FC0009F9F9E9E9F9F9E9FA0A09F9E9F9E9D9D18
:1030D0009E9F9E9D9FA0A09F9D9C9B9B9C9B9A9A20
:1030E0009B9A979088827A6E5F4D464B4F525B69F0
:1030F000767F82888E939999989C9F9D9D9E9E9D98
:10300000829C9C9C9D9E9F9D9E9F9D9E9E9C9A980F
:103010009493938F857B685E5C58585C6065708084
:10302000878D94999C9E9F9E9E9E9E9F9E9E9F9FF5
:10303000A0A09F9E9E9E9FA0A1A1A0A09F9F9F9F9A
:103040009E9E9D9EA0A09E9FA1A09F9E9D9C9A9AA1
:103050009C9E9D9D9FA09F9E9D9C9B9B9B9A999AA9
:103060009A9A9791887F756A5C493D40474D5866AA
:10307000737E85898E959A99999DA19F9D9D9E9D10
:10308000809B9B9A9A9D9E9D9D9E9C9D9E9C9A989E
:103090009693918B817B6B625D58595E62677381F9
:1030A000878E94989A9D9E9E9E9E9E9E9E9E9F9F7A
:1030B000A09F9E9E9E9FA0A1A1A1A0A09F9F9F9E1A
:1030C0009D9D9D9EA1A09D9FA2A09F9F9E9E9D9C19
:1031D0009D9E9E9D9F9F9E9E9D9C9B9B9B9A999929
:1031E0009A999690877D72695F4E40404A525D6918
:1031F000727D868C91979C9C9B9EA19F9D9D9E9D80
:10310000809C9C9A999B9E9E9E9E9C9D9D9C9B9A1A
:103110009A96928A827D7066615B5B5F626873805B
:10312000878D93969A9C9E9F9F9E9E9E9E9E9F9FFC
:103130009F9E9E9E9E9FA0A1A2A1A09F9F9F9F9E9B
:103140009D9C9D9EA09E9C9FA29F9D9FA0A1A1A093
:103150009F9F9E9D9D9D9D9D9D9C9C9C9C9B9A9AA6
:103160009A98948E867C716962564A48545D686F5D
:10317000727A858D93999D9D9D9EA09E9C9C9D9C01
:10318000829E9F9C9B9C9E9E9F9E9C9C9C9B9B9B8F
:103190009B97928B83807369625D5C5D5F66707CD8
:1031A000848C92969A9D9FA09F9F9F9E9E9F9F9F7B
:1031B0009E9E9E9E9FA0A1A1A2A19F9F9FA09F9E19
:1031C0009D9C9D9E9E9C9A9EA09D9B9DA0A3A3A11D
:1032D000A09F9E9C9B9B9B9C9C9C9D9D9D9C9A9A29
:1032E0009A99938D867C716962584E4D58626B71C4
:1032F0007379838D94999C9D9C9C9C9C9B9B9D9C8D
:10320000829FA09F9D9D9E9D9D9D9B9B9A999A9913
:103210009895918A847F7468615D5B595B636E7871
:10322000828B92979B9E9FA0A09F9F9F9F9FA09FF6
:103230009E9E9E9E9FA0A0A1A1A19F9F9FA0A09E99
:103240009D9D9E9F9E9B9A9C9E9B9A9C9EA1A2A0A8
:103250009E9E9E9C9A999A9B9B9C9C9C9C9B9A9AB6
:103260009B9A938C867C70675F544A4A545C656F66
:10327000757B848E95989A9B9A9A9A9B9C9D9E9D0D
:10328000829D9F9F9E9D9E9E9E9D9B9C9A9A9B9990
:103290009694908A8581776B625D595458636E77F6
:1032A000818A90969C9E9FA0A09F9F9F9F9FA09F7A
:1032B0009F9F9F9F9FA0A0A0A0A09F9F9F9F9F9E1A
:1032C0009E9FA1A19F9B9A9C9C9A9A9C9D9F9F9E2A
:1033D0009E9F9F9D9C9A9A9B9B9B9B9B9B9A999B34
:1033E0009C9A9189847A6E655D524A4A5055606E06
:1033F00079808890969898999999999B9C9D9E9D83
:10330000829C9E9F9E9D9D9D9D9D9C9C9B9A9B9813
:103310009593908A86837C6F635D564F55646F7773
:1033200080888E959C9F9FA0A09F9F9F9F9F9F9FFF
:10333000A0A0A09F9F9F9F9F9F9F9F9E9E9E9E9E9F
:103340009FA0A2A3A09C9B9C9B9A9B9D9D9D9C9BA8
:103350009D9F9F9D9C9C9B9C9C9C9B9A9A99999AB3
:103360009C988C837E766B635B524C4D4F536070A0
:103370007E858B929698989999999A9B9C9D9D9CF5
:10338000849EA0A09F9D9D9D9C9C9C9C9B9B9B988C
:103390009694908A85847F73655D554D53626D74F4
:1033A0007B8087929D9F9E9E9E9E9E9E9F9F9F9F9D
:1033B000A1A1A0A09F9F9F9E9E9E9E9E9E9E9D9D22
:1033C0009E9FA1A19F9C9C9D9C9C9D9D9E9D9B9A28
:1034D0009B9E9E9C9B9B9C9D9D9C9B99999897993C
:1034E0009991867D787067605A534F4F5157637436
:1034F00081888D9397989899999A9B9C9C9B9D9C69
:1034000084A0A1A19F9D9E9E9D9D9D9C9C9C9B9AFE
:103410009995918B85838076685E564E525D646D7A
:1034200072747D8E9C9E9C9C9C9C9C9E9F9FA09F4A
:10343000A0A1A0A0A09F9E9E9F9E9D9E9E9E9C9BA5
:103440009C9C9C9D9D9D9F9FA0A19E9D9E9D9A99A9
:103450009B9C9D9B99999B9C9E9C999796949495D7
:1034600092877E79736A605C59535050555C6877D7
:1034700083898E94989898989A9B9C9C9C9D9F9FDA
:10348000839E9F9F9E9D9D9D9D9D9C9B9B9B9B9A8C
:103490009A97938E87837F776B60564F52565A6503
:1034A0006D707889969898999C9C9B9C9E9F9F9DF7
:1034B0009D9F9F9F9F9F9E9E9F9F9F9E9E9D9C9B2B
:1034C0009B9C9C9D9EA0A3A2A09F9C9B9C9B99982B
:1035D000999B9B9A9897989B9E9C97959492929270
:1035E0008B8079756F64575455514E5058626D7A7F
:1035F00084898E9499999898999B9C9C9C9D9F9F57
:10350000829D9D9D9D9C9C9C9D9D9C9B9B9C9E9E0D
:103510009C9896928A847F776D62554F5254576279
:103520006A6C72808C909194999D9C9C9FA1A09EA6
:103530009D9FA0A09FA09F9E9D9E9F9D9D9D9D9CA9
:103540009C9C9D9D9D9FA1A09D9C9C9D9E9C9997B0
:10355000989A9B9A9997989B9E9C999694908E8CFA
:10356000857B76726B5F5350514F4B4E5A67727D1D
:1035700085898E959A9A99999A9B9C9C9C9C9F9ED2
:10358000829D9D9E9D9D9D9E9F9E9C9B9B9DA0A27E
:103590009E9A99968E8681796F62544E51545760E7
:1035A000656569758187898C92999B9D9FA1A09D76
:1035B0009C9FA2A19F9FA09F9E9F9D9B9A9B9C9D2D
:1035C0009D9D9E9F9E9D9D9D9B9B9C9F9E9A96953B
:1036D000979B9E9F9E9C9A9A9B9B9997938D87837D
:1036E0007D75716C665C534F4F4E4B4F5E6E7880AC
:1036F000878B91979B9B9A9A9A9B9C9C9D9E9E9D43
:10360000839E9F9F9F9E9EA0A09E9C9B9B9C9FA1F4
:103610009E9A9A989089857D7162534C4E51545A66
:103620005E5D5F68757E8284899094979A9B999677
:10363000979B9F9F9C9C9D9FA1A19C979596999CD1
:103640009E9F9FA2A3A19F9D9B9A9A9B99949192C2
:10365000969CA0A2A29F9A95939393918D857E7933
:10366000746D68635F58524D4C4E4F5465757E843F
:103670008A8F95999B9B9B9B9B9C9C9C9D9E9C9EB3
:10368000839E9F9F9E9D9B9D9E9D9C9C9B9A9B9D88
:103690009C9A9A99928C89827361534C4B4E5155E6
:1036A0005958565A6571787B7F84878B9093918F98
:1036B00090949998959495979899969391929496B9
:1036C000999B9DA0A19F9D9A9895959694908F9077
:1037D000929495969694918C878685837E7975715F
:1037E0006C645F5C59554F494A4F535A6A7A8286D6
:1037F0008B9095999A9B9B9B9C9C9C9C9C9E9C9E31
:10370000829D9E9D9C9A989A9B9B9B9C9B9A9B9C1E
:103710009C9B9B9994918F877765594F4A4B505545
:103720005A5852515A63696E7478797D84898886B3
:10373000868A8D8D8B8B8B8A898B8D8C8B8A8A8DDB
:103740009295939392908E8D8B898A8B89878788A7
:10375000868381818081817F7C7A78736E6E6F6BC6
:10376000635D595856534E484A50565E6D7B838769
:103770008A9095989A9B9B9C9C9C9C9C9C9D9A9DB6
:10378000819B9B9A9998999A9B9B9B9B9B9B9C9DA9
:103790009C9C9B999795948C7C6D64584C494F5692
:1037A0005B585250565A5C61676A6A6D75797674D7
:1037B00075777A7C7C7C7B79797D8283817E7D8044
:1037C0008587837E7C7C7D7D7B7879797777787738
:1038D000726E6D6D6B696C6E6E6C67625F63666154
:1038E0005A57565552514F4A4B515A65717D8588EA
:1038F0008C9396989A9B9C9C9C9C9C9C9C9D9C9F2A
:10380000809A9A9A99999C9D9C9D9C9B9B9C9C9C20
:103810009C9C9B9A9999968E8277706452484C55DD
:103820005A575454585755575C5F5D5F6364605EE8
:103830005E60636669696664666E7475726E6B6BF2
:103840006E706E69696C70727069646263646563DE
:103850005E5D5F605954565B5B57535051575955E5
:10386000515253524F4E4E494B55647079838A8D55
:1038700090989A9A9B9B9C9C9C9C9C9C9C9D9DA098
:103880007F999A9A9B9B9D9C9C9D9D9B9B9C9D9C9C
:103890009A9B9A9A9B9B978F867E79705D4D4D552A
:1038A0005A585555575552535657555556575555BD
:1038B0005556575A5D5C5752535A5F5E5A56555586
:1038C0005657555153595F64635A4F4C5053555393
:1039D000515359584E484D514E4845464C525350FC
:1039E0004E4F51514E4D4C474A5B6F7C81888E90B3
:1039F000939B9C9B9B9C9C9C9C9C9C9C9C9D9DA00D
:10390000809A9B9B9C9C9C9C9B9A9B9B9B9D9E9C1A
:103910009B9B9B9B9C9B97928C86817A6A5A545660
:103920005958555556545252545453535252535356
:10393000535456585958534E4D4F504E4B4A4B4C7A
:103940004B4A4845464A4F53534D45454C4F504FBF
:103950004F5154534D494D4F4B4645494D4F4F4E96
:103960004E4E51514F4E4D495163768184898E9010
:10397000949C9C9C9C9C9C9B9B9C9C9D9D9D9B9F8C
:10398000809A9C9C9C9C9D9D9B9A9B9C9C9E9E9C93
:103990009C9B9C9D9D9B9895918D888176685C579A
:1039A00056565555555453535454545452505254DA
:1039B0005455575756565451504E4E4B494A4D4EFA
:1039C0004D4C4A47464647494A4846494F51505050
:103AD00050504E50504F50504D4A4B4E4F4E4D4C03
:103AE0004C4C4F4E4D5053545F6E7B83858A8E9164
:103AF000959B9C9C9C9C9C9B9B9C9D9D9E9E9F9F04
:103A0000809B9C9D9C9C9D9E9D9C9D9E9E9E9E9D04
:103A10009C9C9C9D9C9A989795928B867F73655BE6
:103A20005654535253535253545454524F4F52536B
:103A300053545453525353525251514F4D4E51516E
:103A400051504E4C4B4B4B4B4B4B4B4D4F4F4E4EA7
:103A50004E4D4B4E515251504E4C4C4E4F4E4C478A
:103A60004345484648525D636D777F85888C9194C5
:103A7000979C9C9B9B9B9B9A9A9C9D9E9E9E9F9E87
:103A8000819C9D9D9C9C9D9E9E9C9C9E9F9E9E9E7F
:103A90009D9D9D9D9B99989898958E8A867D706630
:103AA0005E564E4A4D4F4F50525353514F4F525105
:103AB00051514F4E505253535252525150515251F4
:103AC00051514F4D4D4C4D4D4D4E4E4F4D4B4D4F19
:103BD0004F4C494C5153514F4F4E4D4D4E4D4A4114
:103BE0003A3E42414554636C747C83888B8F939634
:103BF000999D9D9B9A9A9A9A9A9C9D9D9D9E9F9E07
:103B0000819B9D9D9C9C9D9E9E9C9B9D9E9D9DA002
:103B10009F9E9D9D9B9998999A9893908D877F7869
:103B20006F615148484A4B4B4D5052515050505084
:103B300052504D4D5153525252515050505151507C
:103B40005152504E4D4C4D4D4D4E4E4C48454B4FA5
:103B50004F4C494B5052504D4D4E4E4D4D4D4B4597
:103B600042464A4C536270777D83898D8F92959837
:103B70009B9E9F9C9A9999999B9C9C9C9C9D9F9F86
:103B8000809A9D9D9D9C9D9E9F9D9B9D9E9C9B9F85
:103B90009F9E9D9D9C9A9A9B9C9B989694928E8B9F
:103BA000847564575453514E4E51535252514F5293
:103BB0005757525054545150515151505152514FE6
:103BC0005051504E4B4A4B4C4C4C4C4A47444B5036
:103CD0004F4C4A4C4F504E4B4A4A4B4B4C4D505216
:103CE00055595E636B778083878B8F9293959799F5
:103CF0009B9F9F9D9A9998999A9B9B9B9B9C9D9E0D
:103C00007E9A9D9F9E9C9D9E9F9E9C9E9E9B9A9D04
:103C10009E9D9D9D9D9C9C9D9D9C9A999A999796F1
:103C200092897E75706B655D595959575655525733
:103C30005F615B5757545250505050515252504D43
:103C40004B4B4B4947464648494B4D4F4F4C5052C2
:103C5000504C4B4C4E4F4F4F4C494A4E5053575F70
:103C6000676D70757D868B8C8C9094969798999AD9
:103C70009B9D9E9D9A9998999A9B9B9A9B9B9A9D96
:103C80007F9A9EA09F9D9E9F9F9E9D9E9E9B9B9D7B
:103C90009E9D9C9D9D9C9C9D9D9B9A9A9B9B99986B
:103CA0009794918B847E766E6968676564615B5BCF
:103CB0006164615C58555453504C4A4B4E4F4F4EC3
:103CC0004A47464545444547494E53575856575726
:103DD00053504E4F50535B5F5D595A606465686E37
:103DE000777C7E80868E91919093969798999A9AF7
:103DF0009B9C9C9C9A9998999B9C9C9B9B9B9A9D15
:103D0000809CA0A1A09D9E9E9E9D9C9D9D9D9D9EF4
:103D10009E9D9C9D9C9B9B9C9C9B9B9B9C9B9A98EB
:103D200098999A98908B86807C7A79787772686473
:103D3000646666625E5C5D5E5B534D4C50555A5FD7
:103D40005C56535354545556595E636767656664B1
:103D500062615F6161646B70716F72777B7B7B7E88
:103D6000858A89888C9195969494969698999A9A32
:103D70009B9B9B9C9B9A999B9D9D9D9C9C9C9B9D8A
:103D8000819CA0A19F9D9C9D9C9B9C9C9C9D9E9E7C
:103D90009E9D9C9D9C9B9A9C9D9D9D9D9C9B9A9964
:103DA000999B9F9E979493928F8C8A898782797230
:103DB0006F70726F6C6C6E706E665F5D60646D7656
:103DC000766F69696B6C6D6E7073777876757474E5
:103ED000747575787A7A7C7F8182858889888789EC
:103EE0008E93908D8F9295989796969698999A9A88
:103EF0009A9A9B9C9C9B9B9D9F9F9E9C9C9D9C9CFF
:103E00009B9B9DA09F9A9A9B9D9A9E9E9D9A9F9AEE
:103E10009A9F9D9E9D9D9B9CA0A1A1A09C9A9999D3
:103E20009A9AA1A8A899999FA0A09995948E8C8CF4
:103E300087818783837E848581817B7A7C77777F86
:103E40008E8479797A7D8184848587878181807C5D
:103E50007D83837F8A8C908B8B8D93918C8C8C8BC4
:103E6000919A9A919094939398989A98989A999AEB
:103E70009B9B9A9C9F9C9C9C9FA2A0A09B9B9B9879
:103E80009B9B9DA09F9A9A9B9D9A9E9E9D9A9F9A6E
:103E90009A9F9D9E9D9D9B9CA0A1A1A09C9A999953
:103EA0009A9AA1A8A899999FA0A09995948E8C8C74
:103EB00087818783837E848581817B7A7C77777F06
:103EC0008E8479797A7D8184848587878181807CDD
:103FD0007D83837F8A8C908B8B8D93918C8C8C8B43
:103FE000919A9A919094939398989A98989A999A6A
:103FF0009B9B9A9C9F9C9C9C9FA2A0A09B9B9B98F8
:103F00009A9A9EA39D9D9DA09CA09F9F9D9E9C9DD7
:103F10009D9EA09C9D9D9E9CA0A0A0A1A2A19D9DB8
:103F20009DA2A6A5A599989D9D9DA29FA09E9898AB
:103F3000979B9E9D9D9E9E9889898E949798989711
:103F400096968D8D8D949B9C9C948B868C8C979C47
:103F5000999B9B9E9C9A908E8E90908F9090929120
:103F60009692929698999C9C999B9F9F9F9C9E9CB1
:103F70009B9BA09D9D9E9E9E9D9E9E9E9D9AA09C6D
:103F800097979DA29D9F9F9F9B9E9D9D9A9B9B9D6A
:103F90009D9E9F9C9E9E9E9C9F9E9E9FA09F9C9C44
:103FA0009B9E9F9F9F9E9C9C9B9B9B9A9EA29F9F3C
:103FB0009EA1A19B9B9B9B98939399A0A19E9E9A47
:1040C00097969B9B9B9D9F9A9A94919296969C9F64
:1040D0009D9D9DA1A2A19D9999999B9A9A9A999625
:1040E0009696969997989C9C98979A9B9B999B9942
:1040F00099999E9A9E9E9E9F9F9E9D9D9D9C9F9DF1
:00000001FF